LSTOCK,C,8;PRODUCT1,C,8;PRODUCT2,C,8;PRODUCT3,C,8
CATTLE;MCATTLE;MILK;LEATHER
CHICKEN;MCHICKEN;EGG;FEATHER
PIG;MPIG;LEATHER;HAM
SHEEP;MSHEEP;WOOL;LEATHER
RABBIT;MRABBIT;SRABBIT;
HIVE;HONEY;BEES;
TURKEY;MTURKEY;FEATHER;
FISHERY;FISH;CARP;
DUCKS;MDUCKS;FEATHER;
SHRIMPS;FSHRIMPS;;
GOAT;MGOAT;GOATMILK;CASHMERE
SALMON;FSALMON;;
